1 1 1
1 10 20
100 200 125
201 210 89
900 1000 174
7355 5051 262
8528 2598 262
639 201 144
818 891 179
9227 8988 229
8585 6335 257
4396 1046 238
7498 1999 262
358 2230 183
7336 9176 252
4441 2189 238
4740 416 238
9862 6293 260
5393 5998 236
6369 8202 257
4273 4075 202
128 3330 217
9331 8487 260
3375 5503 238
2480 1735 209
3871 5448 215
8752 9587 260
2828 8641 262
3436 50 217
2198 7231 262
7116 7129 164
3772 7406 262
7322 2413 262
6362 9933 260
3879 2152 238
6114 1529 238
8297 3590 262
346 4645 238
5458 5916 236
9882 6384 260
1955 2172 175
6514 5260 262
5494 2333 238
3154 2827 217
2420 5051 238
8716 1042 262
2134 6961 262
43 2797 209
1620 9578 262
9500 8645 260
4431 8829 262
5174 2156 238
5457 9946 262
4545 9266 262
2867 8695 262
5375 839 238
4988 946 238
168 1031 179
2948 2794 217
7416 4056 262
7098 2474 262
5241 9594 262
112 8849 262
8302 3928 262
4750 4243 215
6934 7694 257
5059 5981 236
6055 5795 218
5033 4344 215
5703 6489 262
8234 4968 262
5514 8189 262
7138 2351 262
1053 8336 262
4153 7316 262
7290 8068 252
2881 7930 262
6771 2993 262
9594 7368 260
8037 1308 262
3415 2112 217
9986 6549 260
2890 5239 238
3000 7338 262
1072 2823 209
1227 4529 238
5767 1163 238
6456 5517 262
3729 7236 262
2176 5783 238
3221 3440 181
3011 8720 262
6171 2505 262
6697 8650 257
1806 2488 209
3592 264 217
979 7688 262
3976 6107 236
539 1684 182
3948 9625 262
7939 6680 257
4924 6416 262
4873 9580 262
635 7911 262
6137 2829 238
4550 8769 262
9610 2245 262
4117 8693 262
7805 684 262
3602 7209 262
7106 8190 252
8517 9777 260
7555 1847 262
3211 1974 217
4405 1191 238
9186 5298 262
3113 5140 238
9134 8719 247
1708 7365 262
991 256 179
2066 5076 238
6334 9268 260
9694 3694 262
8866 5856 262
8815 9745 260
823 4634 238
6105 5364 236
9331 6055 262
8426 704 262
6668 1483 262
6116 3051 238
8393 7580 252
4092 8648 262
6496 5961 262
9218 2547 262
734 3091 217
2925 2296 217
8700 9642 260
6473 1201 262
7423 6265 257
6719 3890 262
2227 4622 238
8060 2388 262
9274 9745 198
5771 6860 262
9275 6982 260
5500 9825 262
845 2711 209
777 9218 262
8989 7400 252
8925 6410 257
2481 4162 238
7591 7016 239
5367 2221 238
9284 6524 260
852836 875453 432
235407 285799 407
745161 778396 468
196859 191822 360
999999 999999 259
